{
  "com.minichat.habibi.fidyu.haya": {
    "rate_app": {
      "package_id": "com.minichat.habibi.fidyu.haya",
      "is_rate_app": true,
      "rate_app_url": "https://play.google.com/store/apps/details?id=com.minichat.habibi.fidyu.haya",
      "rate_message": "Please"
    },
    "About_App": {
      "about_title": "Habibi",
      "is_override": false,
      "is_about_app": true,
      "about_message": "Random",
      "version_detail": "version : 1.0.0",
      "registration_detail": "Habibi"
    },
    "app_lovin": {
      "id_unit_intra": "ca19b58e94402272",
      "is_banner_ads": true,
      "is_native_ads": true,
      "id_unit_banner": "e8ea71b7664e0fb8",
      "id_unit_native": "4acf7d8bc1b1cc6e",
      "is_rewared_ads": true,
      "is_unlimited_ads": true,
      "is_interstitial_ads": true,
      "rewared_ads_unit_id": "96c3766c14ff0f10",
      "id_unit_native_multiple": {
        "small": "4acf7d8bc1b1cc6e",
        "manual": "4acf7d8bc1b1cc6e",
        "medium": "4acf7d8bc1b1cc6e"
      }
    },
    "extra_url": "https://raw.githubusercontent.com/pkbitcoding/booya/main/App_Setting.json",
    "share_app": {
      "share_title": "Share",
      "is_share_app": false,
      "share_message": "Now"
    },
    "unity_ads": {
      "game_id": "4737797",
      "is_intra_ads": true,
      "is_banner_ads": true,
      "is_rewared_ads": true
    },
    "ad_setting": {
      "is_full_ads": false,
      "onesignal_id": "ae6e77d4-07e5-42ba-a8ef-6b396d1bfe11",
      "ads_loading_text": "Ad is loading...",
      "app_version_code": "17",
      "global_intra_interval_click": "1",
      "interstitial_ad_time_interval": "0",
      "seconds_require_triger_reward": "25"
    },
    "app_update": {
      "title": "Enjoy",
      "app_icon": "https://play-lh.googleusercontent.com/puoKL06VOKbYoXPB-O2JfueIgMDuy2vGWdSZ7f7XsGG9idZQ7Sr42E54Uv-M5a5fqXo=w240-h480-rw",
      "package_id": "com.minichat.habibi.fidyu.haya",
      "website_url": "https://play.google.com/store/apps/details?id=com.adult.iptv.hot.playlist",
      "default_message": "Don't",
      "is_popup_dialog": true,
      "is_update_require": false,
      "updated_version_code": "50"
    },
    "custom_ads": {
      "qureka_link": "https://490.go.qureka.com/intro/question",
      "is_quraka_banner": true,
      "is_quraka_intera": true,
      "quraka_intra_image": [
        "https://github.com/pragneshpalsanabitcoding/image_quraka/blob/main/360X640_1.png?raw=true",
        "https://github.com/pragneshpalsanabitcoding/image_quraka/blob/main/360X640_2.png?raw=true",
        "https://github.com/pragneshpalsanabitcoding/image_quraka/blob/main/360X640_3.png?raw=true",
        "https://github.com/pragneshpalsanabitcoding/image_quraka/blob/main/360X640_4.png?raw=true",
        "https://github.com/pragneshpalsanabitcoding/image_quraka/blob/main/360X640_5.png?raw=true",
        "https://github.com/pragneshpalsanabitcoding/image_quraka/blob/main/360X640_6.png?raw=true"
      ],
      "quraka_banner_image": [
        "https://github.com/pragneshpalsanabitcoding/image_quraka/blob/main/2.jpg?raw=true",
        "https://github.com/pragneshpalsanabitcoding/image_quraka/blob/main/3.jpg?raw=true",
        "https://github.com/pragneshpalsanabitcoding/image_quraka/blob/main/320x50.jpg?raw=true",
        "https://github.com/pragneshpalsanabitcoding/image_quraka/blob/main/4.jpg?raw=true",
        "https://github.com/pragneshpalsanabitcoding/image_quraka/blob/main/5.jpg?raw=true",
        "https://github.com/pragneshpalsanabitcoding/image_quraka/blob/main/6.jpg?raw=true"
      ],
      "close_button_to_direct_web": true
    },
    "google_ads": {
      "is_open_ads": true,
      "is_banner_ads": true,
      "is_native_ads": false,
      "is_rewared_ads": false,
      "is_interstitial_ads": true,
      "rewared_ads_unit_id": "96c3766c14ff0f10",
      "no_of_click_interstitial": "3",
      "banner_ad_unit_id_android": "ca-app-pub-6114254035947288/8415364180",
      "native_ads_unit_id_android": "/6499/example/native",
      "app_open_ad_unit_id_android": "ca-app-pub-6114254035947288/8747640324",
      "interstitial_ad_unit_id_android": "ca-app-pub-6114254035947288/9525535378",
      "native_video_ads_unit_id_android": "/6499/example/native-video"
    },
    "exit_dialog": {
      "exit_title": "Exit",
      "exit_message": "Do",
      "is_exit_require": true
    },
    "ads_sequence": [
      "facebook_ads",
      "app_lovin",
      "google_ads"
    ],
    "error_report": {
      "email_id": "mailto:minichat.inc@gmail.com",
      "is_error_report_support": true
    },
    "facebook_ads": {
      "is_banner_ads": true,
      "is_native_ads": true,
      "is_rewared_ads": true,
      "is_interstitial_ads": true,
      "rewared_ads_unit_id": "633714137717004_633714994383585",
      "banner_ad_unit_id_android": "633714137717004_633714944383590",
      "native_ads_unit_id_android": "633714137717004_633715097716908",
      "interstitial_ad_unit_id_android": "633714137717004_633714994383585"
    },
    "more_app_url": "https://play.google.com/store/apps/developer?id=Minichat+inc",
    "terms_of_use": {
      "terms_of_use": "https://pages.flycricket.io/habibi-dardashat-fid/privacy.html",
      "is_terms_of_use": true,
      "is_system_browser": true
    },
    "reward_dialog": {
      "reward_message": "Watch",
      "version_detail": "version",
      "is_reward_require": true
    },
    "privacy_policy": {
      "privacy_policy": "https://pages.flycricket.io/habibi-dardashat-fid/privacy.html",
      "is_privacy_policy": true,
      "is_system_browser": true
    },
    "feedback_support": {
      "email_id": "mailto:minichat.inc@gmail.com",
      "email_message": "Hi,",
      "email_subject": "Feedback",
      "feedback_title": "Feedback",
      "feedback_message": "Hi,",
      "is_feedback_support": true
    }
  }
}

